{
  "domain": "iam",
  "application": "iam-cmdm-integration-app",
  "email": "iam-support@scholastic.com",
  "topics": [
    {
      "topic": "iam.iam-user-events.v1",
      "groups": [
        {
          "group": "iam.iam-cmdm-integration-app",
          "offsetLagThreshold": 10000
        }
      ]
    },
    {
      "topic": "cmdm.individual-crud-events.v1",
      "groups": [
        {
          "group": "iam.iam-cmdm-integration-app",
          "offsetLagThreshold": 30000
        }
      ]
    }
  ]
}