{
	"domain": "mdm",
	"application": "step2sites",
	"email": "pmdm-dev@scholastic.com",
	"topics": [
		{
			"topic": "mdm.stepxml.v1",
			"groups": [
				{
					"group": "mdm.step2sites",
					"offsetLagThreshold": 100
				}
			]
		},
		{
			"topic": "mdm.stepxml-boms.v1",
			"groups": [
				{
					"group": "mdm.step2sites",
					"offsetLagThreshold": 10
				}
			]
		},
		{
			"topic": "mdm.stepxml-offers.v1",
			"groups": [
				{
					"group": "mdm.step2sites",
					"offsetLagThreshold": 10
				}
			]
		},
		{
			"topic": "mdm.stepxml-offer-suffix.v1",
			"groups": [
				{
					"group": "mdm.step2sites",
					"offsetLagThreshold": 100
				}
			]
		},
		{
			"topic": "mdm.pmdsxml-deleted.v1",
			"groups": [
				{
					"group": "mdm.step2sites",
					"offsetLagThreshold": 1
				}
			]
		}
	]
}