{
  "domain": "crm",
  "application": "cis-002",
  "email": "CRM_SFDC_Edu_QA_Ops@Scholastic.com",
  "topics": [
    {
      "topic": "crm.notify-account.v1",
      "groups": [
        {
          "group": "crm.cis-002",
          "offsetLagThreshold": 25
        }
      ]
    },
    {
      "topic": "crm.notify-batchaccount.v1",
      "groups": [
        {
          "group": "crm.cis-002",
          "offsetLagThreshold": 25
        }
      ]
    }
  ]
}
