{
  "domain": "bfpdb",
  "application": "mdm-pdb-sync",
  "email": "PLMKafkaAlerts@Scholastic.com",
  "topics": [
    {
      "topic": "mdm.pmdsxml-product.v1",
      "groups": [
        {
          "group": "bfpdb.mdm-pdb-sync",
          "offsetLagThreshold": 1000
        }
      ]
    }
  ]
}