{
  "domain": "crm",
  "application": "cptk-005",
  "email": "CRM_SFDC_Edu_QA_Ops@Scholastic.com",
  "topics": [
    {
      "topic": "crm.notify-opportunity.v1",
      "groups": [
        {
          "group": "crm.cptk-005",
          "offsetLagThreshold": 25
        }
      ]
    }
  ]
}