{
  "domain": "cmdm",
  "application": "stcharles-proxy-process",
  "email": "CustomerMDMNonProdAlerts@Scholastic.com",
  "topics": [
    {
      "topic": "cmdm.stc-customer-new-event-mq-message-id.v1",
      "groups": [
        {
          "group": "cmdm.stcharles-proxy-process",
          "offsetLagThreshold": 500
        }
      ]
    },
    {
      "topic": "cmdm.stc-customer-change-event-mq-message-id.v1",
      "groups": [
        {
          "group": "cmdm.stcharles-proxy-process",
          "offsetLagThreshold": 500
        }
      ]
    },
    {
      "topic": "cmdm.stc-noresponse-event-mq-message-id.v1",
      "groups": [
        {
          "group": "cmdm.stcharles-proxy-process",
          "offsetLagThreshold": 500
        }
      ]
    },
    {
      "topic": "cmdm.published-customer-codem-message.v1",
      "groups": [
        {
          "group": "cmdm.stcharles-proxy-process",
          "offsetLagThreshold": 1000
        }
      ]
    },
    {
      "topic": "cmdm.codem-publisher-customer-messages.v1",
      "groups": [
        {
          "group": "cmdm.stcharles-proxy-process",
          "offsetLagThreshold": 2000
        }
      ]
    }
  ]
}