{
  "domain": "is",
  "application": "amazonmq-admin-api",
  "topics": [
    "is.activemq-producer-data-change.v1",
    "is.activemq-consumer-data-change.v1",
    "is.activemq-registration-credentials.v1"
  ]
}