{
  "domain": "dle",
  "application": "datalake-platform",
  "email": "dle_support@scholastic.com",
  "topics": [
    {
      "topic": "dle.entity-batch-lifecycle.v1",
      "groups": [
        {
          "group": "dle.datalake-platform.lifecycle-event-replicator",
          "offsetLagThreshold": 100
        },
        {
          "group": "dle.datalake-platform.lifecycle-event-monitor",
          "offsetLagThreshold": 100
        }
      ]
    },
    {
      "topic": "dle.fake-entity.v1",
      "groups": [
        {
          "group": "dle.datalake-platform",
          "offsetLagThreshold": 10000
        }
      ]
    },
    {
      "topic": "iam.bfc-parent-list.v1",
      "groups": [
        {
          "group": "dle.datalake-platform",
          "offsetLagThreshold": 400
        }
      ]
    },
    {
      "topic": "iam.homepage-parent-list.v1",
      "groups": [
        {
          "group": "dle.datalake-platform",
          "offsetLagThreshold": 400
        }
      ]
    },
    {
      "topic": "iam.iam-teacher-parent-list.v1",
      "groups": [
        {
          "group": "dle.datalake-platform",
          "offsetLagThreshold": 400
        }
      ]
    },
    {
      "topic": "iam.iam-user-events.v1",
      "groups": [
        {
          "group": "dle.datalake-platform",
          "offsetLagThreshold": 400
        }
      ]
    }
  ]
}
