{
  "domain": "cmdm",
  "application": "codem-fanout",
  "email": "CustomerMDMNonProdAlerts@Scholastic.com",
  "topics": [
    {
      "topic": "cmdm.codem-response-messages.v1",
      "groups": [
        {
          "group": "cmdm.codem-fanout",
          "offsetLagThreshold": 500
        }
      ]
    },
    {
      "topic": "cmdm.codem-publisher-customer-messages.v1",
      "groups": [
        {
          "group": "cmdm.codem-fanout",
          "offsetLagThreshold": 500
        }
      ]
    }
  ]
}