{
  "domain": "cmdm",
  "application": "codem-publisher",
  "topics": [
    "cmdm.codem-publisher-individual-error-events.v1",
    "cmdm.codem-publisher-organization-error-events.v1",
    "cmdm.codem-publisher-customer-messages.v1"
  ]
}