{
  "domain": "dle",
  "application": "datalake-platform-e2e-test",
  "email": "dle_support@scholastic.com",
  "topics": [
    {
      "topic": "dle.entity-batch-lifecycle.v1",
      "groups": [
        {
          "group": "dle.datalake-platform-e2e-test",
          "offsetLagThreshold": 10000
        }
      ]
    }
  ]
}
